<?xml version="1.0" encoding="utf-8"?>
<!DOCTYPE eagle SYSTEM "eagle.dtd">
<eagle version="7.3.0">
<drawing>
<settings>
<setting alwaysvectorfont="no"/>
<setting verticaltext="up"/>
</settings>
<grid distance="0.1" unitdist="inch" unit="inch" style="lines" multiple="1" display="no" altdistance="0.01" altunitdist="inch" altunit="inch"/>
<layers>
<layer number="1" name="Top" color="4" fill="1" visible="yes" active="yes"/>
<layer number="16" name="Bottom" color="1" fill="1" visible="yes" active="yes"/>
<layer number="17" name="Pads" color="2" fill="1" visible="yes" active="yes"/>
<layer number="18" name="Vias" color="2" fill="1" visible="yes" active="yes"/>
<layer number="19" name="Unrouted" color="6" fill="1" visible="yes" active="yes"/>
<layer number="20" name="Dimension" color="15" fill="1" visible="yes" active="yes"/>
<layer number="21" name="tPlace" color="7" fill="1" visible="yes" active="yes"/>
<layer number="22" name="bPlace" color="7" fill="1" visible="yes" active="yes"/>
<layer number="23" name="tOrigins" color="15" fill="1" visible="yes" active="yes"/>
<layer number="24" name="bOrigins" color="15" fill="1" visible="yes" active="yes"/>
<layer number="25" name="tNames" color="7" fill="1" visible="yes" active="yes"/>
<layer number="26" name="bNames" color="7" fill="1" visible="yes" active="yes"/>
<layer number="27" name="tValues" color="7" fill="1" visible="yes" active="yes"/>
<layer number="28" name="bValues" color="7" fill="1" visible="yes" active="yes"/>
<layer number="29" name="tStop" color="7" fill="3" visible="yes" active="yes"/>
<layer number="30" name="bStop" color="7" fill="6" visible="yes" active="yes"/>
<layer number="31" name="tCream" color="7" fill="4" visible="yes" active="yes"/>
<layer number="32" name="bCream" color="7" fill="5" visible="yes" active="yes"/>
<layer number="33" name="tFinish" color="6" fill="3" visible="yes" active="yes"/>
<layer number="34" name="bFinish" color="6" fill="6" visible="yes" active="yes"/>
<layer number="35" name="tGlue" color="7" fill="4" visible="yes" active="yes"/>
<layer number="36" name="bGlue" color="7" fill="5" visible="yes" active="yes"/>
<layer number="37" name="tTest" color="7" fill="1" visible="yes" active="yes"/>
<layer number="38" name="bTest" color="7" fill="1" visible="yes" active="yes"/>
<layer number="39" name="tKeepout" color="4" fill="11" visible="yes" active="yes"/>
<layer number="40" name="bKeepout" color="1" fill="11" visible="yes" active="yes"/>
<layer number="41" name="tRestrict" color="4" fill="10" visible="yes" active="yes"/>
<layer number="42" name="bRestrict" color="1" fill="10" visible="yes" active="yes"/>
<layer number="43" name="vRestrict" color="2" fill="10" visible="yes" active="yes"/>
<layer number="44" name="Drills" color="7" fill="1" visible="yes" active="yes"/>
<layer number="45" name="Holes" color="7" fill="1" visible="yes" active="yes"/>
<layer number="46" name="Milling" color="3" fill="1" visible="yes" active="yes"/>
<layer number="47" name="Measures" color="7" fill="1" visible="yes" active="yes"/>
<layer number="48" name="Document" color="7" fill="1" visible="yes" active="yes"/>
<layer number="49" name="Reference" color="7" fill="1" visible="yes" active="yes"/>
<layer number="50" name="dxf" color="7" fill="1" visible="no" active="no"/>
<layer number="51" name="tDocu" color="7" fill="1" visible="yes" active="yes"/>
<layer number="52" name="bDocu" color="7" fill="1" visible="yes" active="yes"/>
<layer number="53" name="tGND_GNDA" color="7" fill="9" visible="no" active="no"/>
<layer number="54" name="bGND_GNDA" color="1" fill="9" visible="no" active="no"/>
<layer number="56" name="wert" color="7" fill="1" visible="no" active="no"/>
<layer number="57" name="tCAD" color="7" fill="1" visible="no" active="no"/>
<layer number="90" name="Modules" color="5" fill="1" visible="yes" active="yes"/>
<layer number="91" name="Nets" color="2" fill="1" visible="yes" active="yes"/>
<layer number="92" name="Busses" color="1" fill="1" visible="yes" active="yes"/>
<layer number="93" name="Pins" color="2" fill="1" visible="no" active="yes"/>
<layer number="94" name="Symbols" color="4" fill="1" visible="yes" active="yes"/>
<layer number="95" name="Names" color="7" fill="1" visible="yes" active="yes"/>
<layer number="96" name="Values" color="7" fill="1" visible="yes" active="yes"/>
<layer number="97" name="Info" color="7" fill="1" visible="yes" active="yes"/>
<layer number="98" name="Guide" color="6" fill="1" visible="yes" active="yes"/>
<layer number="99" name="SpiceOrder" color="5" fill="1" visible="no" active="yes"/>
<layer number="100" name="Muster" color="7" fill="1" visible="no" active="no"/>
<layer number="101" name="Patch_Top" color="12" fill="4" visible="yes" active="yes"/>
<layer number="102" name="Vscore" color="7" fill="1" visible="yes" active="yes"/>
<layer number="103" name="tMap" color="7" fill="1" visible="yes" active="yes"/>
<layer number="104" name="Name" color="16" fill="1" visible="yes" active="yes"/>
<layer number="105" name="tPlate" color="7" fill="1" visible="yes" active="yes"/>
<layer number="106" name="bPlate" color="7" fill="1" visible="yes" active="yes"/>
<layer number="107" name="Crop" color="7" fill="1" visible="yes" active="yes"/>
<layer number="108" name="tplace-old" color="10" fill="1" visible="yes" active="yes"/>
<layer number="109" name="ref-old" color="11" fill="1" visible="yes" active="yes"/>
<layer number="110" name="fp0" color="7" fill="1" visible="yes" active="yes"/>
<layer number="111" name="LPC17xx" color="7" fill="1" visible="yes" active="yes"/>
<layer number="112" name="tSilk" color="7" fill="1" visible="yes" active="yes"/>
<layer number="113" name="IDFDebug" color="7" fill="1" visible="yes" active="yes"/>
<layer number="116" name="Patch_BOT" color="9" fill="4" visible="yes" active="yes"/>
<layer number="121" name="_tsilk" color="7" fill="1" visible="yes" active="yes"/>
<layer number="122" name="_bsilk" color="7" fill="1" visible="yes" active="yes"/>
<layer number="123" name="tTestmark" color="7" fill="1" visible="yes" active="yes"/>
<layer number="124" name="bTestmark" color="7" fill="1" visible="yes" active="yes"/>
<layer number="125" name="_tNames" color="7" fill="1" visible="yes" active="yes"/>
<layer number="126" name="_bNames" color="7" fill="1" visible="yes" active="yes"/>
<layer number="127" name="_tValues" color="7" fill="1" visible="yes" active="yes"/>
<layer number="128" name="_bValues" color="7" fill="1" visible="yes" active="yes"/>
<layer number="131" name="tAdjust" color="7" fill="1" visible="yes" active="yes"/>
<layer number="132" name="bAdjust" color="7" fill="1" visible="yes" active="yes"/>
<layer number="144" name="Drill_legend" color="7" fill="1" visible="yes" active="yes"/>
<layer number="150" name="Notes" color="7" fill="1" visible="yes" active="yes"/>
<layer number="151" name="HeatSink" color="7" fill="1" visible="yes" active="yes"/>
<layer number="152" name="_bDocu" color="7" fill="1" visible="yes" active="yes"/>
<layer number="153" name="FabDoc1" color="7" fill="1" visible="yes" active="yes"/>
<layer number="154" name="FabDoc2" color="7" fill="1" visible="yes" active="yes"/>
<layer number="155" name="FabDoc3" color="7" fill="1" visible="yes" active="yes"/>
<layer number="199" name="Contour" color="7" fill="1" visible="yes" active="yes"/>
<layer number="200" name="200bmp" color="1" fill="10" visible="yes" active="yes"/>
<layer number="201" name="201bmp" color="2" fill="10" visible="yes" active="yes"/>
<layer number="202" name="202bmp" color="3" fill="10" visible="yes" active="yes"/>
<layer number="203" name="203bmp" color="4" fill="10" visible="yes" active="yes"/>
<layer number="204" name="204bmp" color="5" fill="10" visible="yes" active="yes"/>
<layer number="205" name="205bmp" color="6" fill="10" visible="yes" active="yes"/>
<layer number="206" name="206bmp" color="7" fill="10" visible="yes" active="yes"/>
<layer number="207" name="207bmp" color="8" fill="10" visible="yes" active="yes"/>
<layer number="208" name="208bmp" color="9" fill="10" visible="yes" active="yes"/>
<layer number="209" name="209bmp" color="7" fill="1" visible="yes" active="yes"/>
<layer number="210" name="210bmp" color="7" fill="1" visible="yes" active="yes"/>
<layer number="211" name="211bmp" color="7" fill="1" visible="yes" active="yes"/>
<layer number="212" name="212bmp" color="7" fill="1" visible="yes" active="yes"/>
<layer number="213" name="213bmp" color="7" fill="1" visible="yes" active="yes"/>
<layer number="214" name="214bmp" color="7" fill="1" visible="yes" active="yes"/>
<layer number="215" name="215bmp" color="7" fill="1" visible="yes" active="yes"/>
<layer number="216" name="216bmp" color="7" fill="1" visible="yes" active="yes"/>
<layer number="217" name="217bmp" color="18" fill="1" visible="no" active="no"/>
<layer number="218" name="218bmp" color="19" fill="1" visible="no" active="no"/>
<layer number="219" name="219bmp" color="20" fill="1" visible="no" active="no"/>
<layer number="220" name="220bmp" color="21" fill="1" visible="no" active="no"/>
<layer number="221" name="221bmp" color="22" fill="1" visible="no" active="no"/>
<layer number="222" name="222bmp" color="23" fill="1" visible="no" active="no"/>
<layer number="223" name="223bmp" color="24" fill="1" visible="no" active="no"/>
<layer number="224" name="224bmp" color="25" fill="1" visible="no" active="no"/>
<layer number="225" name="225bmp" color="7" fill="1" visible="yes" active="yes"/>
<layer number="226" name="226bmp" color="7" fill="1" visible="yes" active="yes"/>
<layer number="227" name="227bmp" color="7" fill="1" visible="yes" active="yes"/>
<layer number="228" name="228bmp" color="7" fill="1" visible="yes" active="yes"/>
<layer number="229" name="229bmp" color="7" fill="1" visible="yes" active="yes"/>
<layer number="230" name="230bmp" color="7" fill="1" visible="yes" active="yes"/>
<layer number="231" name="231bmp" color="7" fill="1" visible="yes" active="yes"/>
<layer number="248" name="Housing" color="7" fill="1" visible="yes" active="yes"/>
<layer number="249" name="Edge" color="7" fill="1" visible="yes" active="yes"/>
<layer number="250" name="Descript" color="3" fill="1" visible="no" active="no"/>
<layer number="251" name="SMDround" color="12" fill="11" visible="no" active="no"/>
<layer number="254" name="cooling" color="7" fill="1" visible="yes" active="yes"/>
</layers>
<library>
<packages>
<package name="KXOB22-04X3L_SOLAR_CELL">
<description>&lt;b&gt;INDUCTOR&lt;/b&gt;&lt;p&gt;
molded</description>
<wire x1="-4.613" y1="3.3" x2="4.719" y2="3.3" width="0.0508" layer="39"/>
<wire x1="4.72" y1="-3.3" x2="-4.614" y2="-3.3" width="0.0508" layer="39"/>
<wire x1="-4.614" y1="-3.3" x2="-4.613" y2="3.3" width="0.0508" layer="39"/>
<wire x1="4.719" y1="3.3" x2="4.72" y2="-3.3" width="0.0508" layer="39"/>
<wire x1="-4.875" y1="3.3" x2="4.875" y2="3.3" width="0.075" layer="21"/>
<wire x1="4.875" y1="3.3" x2="4.875" y2="-3.3" width="0.075" layer="21"/>
<wire x1="4.875" y1="-3.3" x2="-4.875" y2="-3.3" width="0.075" layer="21"/>
<wire x1="-4.875" y1="-3.3" x2="-4.875" y2="3.3" width="0.075" layer="21"/>
<smd name="ANODE" x="-3.1" y="0" dx="2.25" dy="6.2" layer="1"/>
<smd name="CATHODE" x="3.1" y="0" dx="2.25" dy="6.2" layer="1"/>
<text x="-4.086" y="3.42" size="0.254" layer="25" distance="5">&gt;NAME</text>
<text x="-2.779" y="3.442" size="0.254" layer="27">&gt;VALUE</text>
<rectangle x1="-1.6" y1="-2.95" x2="1.6" y2="2.95" layer="35"/>
<text x="-5.08" y="-2.54" size="1.27" layer="21" rot="R90">ANODE</text>
</package>
<package name="2,3-PAD">
<description>&lt;b&gt;MOUNTING PAD&lt;/b&gt; 2.8 mm, round</description>
<wire x1="0" y1="2.421" x2="0" y2="2.167" width="0.0508" layer="21"/>
<wire x1="0" y1="-2.167" x2="0" y2="-2.421" width="0.0508" layer="21"/>
<circle x="0" y="0" radius="2.421" width="0.1524" layer="21"/>
<circle x="0" y="0" radius="2.675" width="0.8128" layer="39"/>
<circle x="0" y="0" radius="2.675" width="0.8128" layer="40"/>
<circle x="0" y="0" radius="2.675" width="0.8128" layer="43"/>
<circle x="0" y="0" radius="1.25" width="0.2032" layer="21"/>
<pad name="PAD1" x="0" y="0" drill="2.3" diameter="4.3"/>
<text x="-0.89" y="-3.57" size="0.4" layer="25">&gt;NAME</text>
<text x="-0.94" y="-4.04" size="0.4" layer="27">&gt;VALUE</text>
</package>
<package name="R1206_DUMMY_R">
<description>&lt;b&gt;RESISTOR&lt;/b&gt;</description>
<wire x1="0.9525" y1="-0.8128" x2="-0.9652" y2="-0.8128" width="0.1524" layer="51"/>
<wire x1="0.9525" y1="0.8128" x2="-0.9652" y2="0.8128" width="0.1524" layer="51"/>
<wire x1="-2.473" y1="0.983" x2="2.473" y2="0.983" width="0.0508" layer="39"/>
<wire x1="2.473" y1="0.983" x2="2.473" y2="-0.983" width="0.0508" layer="39"/>
<wire x1="2.473" y1="-0.983" x2="-2.473" y2="-0.983" width="0.0508" layer="39"/>
<wire x1="-2.473" y1="-0.983" x2="-2.473" y2="0.983" width="0.0508" layer="39"/>
<smd name="2" x="1.422" y="0" dx="1.6" dy="1.803" layer="1"/>
<smd name="1" x="-1.422" y="0" dx="1.6" dy="1.803" layer="1"/>
<text x="-2.198" y="1.591" size="0.4" layer="25">&gt;NAME</text>
<text x="-2.32" y="1.135" size="0.4" layer="27">&gt;VALUE</text>
<rectangle x1="-1.6891" y1="-0.8763" x2="-0.9525" y2="0.8763" layer="51"/>
<rectangle x1="0.9525" y1="-0.8763" x2="1.6891" y2="0.8763" layer="51"/>
<rectangle x1="-0.3" y1="-0.7" x2="0.3" y2="0.7" layer="35"/>
</package>
<package name="TEST_POINT_SQUARE">
<smd name="1" x="0" y="0.19" dx="1" dy="1" layer="1"/>
<text x="-0.73" y="1.185" size="0.3" layer="25">&gt;NAME</text>
<text x="-0.74" y="0.808" size="0.3" layer="27">&gt;VALUE</text>
</package>
<package name="TSM_2PINS_SAMTEC">
<description>&lt;b&gt;CAPACITOR&lt;/b&gt;</description>
<smd name="1" x="-1.27" y="1.46" dx="1.27" dy="3.43" layer="1"/>
<smd name="2" x="1.27" y="-1.46" dx="1.27" dy="3.43" layer="1"/>
<text x="0.013" y="1.163" size="0.4" layer="25">&gt;NAME</text>
<text x="-0.041" y="0.637" size="0.4" layer="27">&gt;VALUE</text>
</package>
<package name="1_BATTERY">
<description>&lt;b&gt;CAPACITOR&lt;/b&gt;</description>
<wire x1="-7.773" y1="2.383" x2="7.873" y2="2.383" width="0.0508" layer="39"/>
<wire x1="7.873" y1="-2.483" x2="-7.773" y2="-2.483" width="0.0508" layer="39"/>
<wire x1="-7.773" y1="-2.483" x2="-7.773" y2="2.383" width="0.0508" layer="39"/>
<wire x1="7.873" y1="2.383" x2="7.873" y2="-2.483" width="0.0508" layer="39"/>
<wire x1="6.5" y1="2.213" x2="-6.5" y2="2.213" width="0.1016" layer="51"/>
<wire x1="-6.5" y1="-2.213" x2="6.5" y2="-2.213" width="0.1016" layer="51"/>
<smd name="1" x="-4" y="0" dx="4" dy="4" layer="1"/>
<smd name="2" x="4" y="0" dx="4" dy="4" layer="1"/>
<text x="-2.79" y="3.11" size="1.27" layer="25">&gt;NAME</text>
<text x="-3.39" y="-4.4" size="1.27" layer="27">&gt;VALUE</text>
<rectangle x1="-6" y1="-2" x2="-2" y2="2" layer="51"/>
<rectangle x1="2" y1="-2" x2="6" y2="2" layer="51"/>
<text x="-7.62" y="-2.54" size="1.27" layer="21" rot="R90">BAT_P</text>
</package>
<package name="USB-MICRO-SMD">
<wire x1="-2.15" y1="3.9" x2="-2.15" y2="-3.9" width="0.127" layer="49"/>
<wire x1="2.85" y1="3.9" x2="2.85" y2="-3.9" width="0.127" layer="49"/>
<wire x1="2.85" y1="3.9" x2="-2.15" y2="3.9" width="0.127" layer="49"/>
<wire x1="2.85" y1="-3.9" x2="-2.15" y2="-3.9" width="0.127" layer="49"/>
<wire x1="2.981959375" y1="3.99288125" x2="2" y2="3.99288125" width="0.3048" layer="21"/>
<wire x1="2" y1="3.99288125" x2="2" y2="4" width="0.3048" layer="21"/>
<wire x1="3" y1="4" x2="3" y2="3" width="0.3048" layer="21"/>
<wire x1="2" y1="-4" x2="3" y2="-4" width="0.3048" layer="21"/>
<wire x1="3" y1="-4" x2="3" y2="-3" width="0.3048" layer="21"/>
<wire x1="-1" y1="4" x2="-2" y2="4" width="0.3048" layer="21"/>
<wire x1="-1" y1="-4" x2="-2" y2="-4" width="0.3048" layer="21"/>
<wire x1="1.89991875" y1="1.6002" x2="2.499359375" y2="1.6002" width="0" layer="21"/>
<rectangle x1="-0.75" y1="2.784" x2="0.75" y2="4.584" layer="1"/>
<rectangle x1="-0.75" y1="-4.584" x2="0.75" y2="-2.784" layer="1"/>
<rectangle x1="-0.75" y1="2.784" x2="0.75" y2="4.584" layer="31"/>
<rectangle x1="-0.75" y1="-4.584" x2="0.75" y2="-2.784" layer="31"/>
<rectangle x1="-0.85" y1="2.684" x2="0.85" y2="4.684" layer="29"/>
<rectangle x1="-0.85" y1="-4.684" x2="0.85" y2="-2.684" layer="29"/>
<smd name="D+1" x="2.7" y="0" dx="0.4" dy="1.4" layer="1" rot="R90"/>
<smd name="D-1" x="2.7" y="0.65" dx="0.4" dy="1.4" layer="1" rot="R90"/>
<smd name="GND1" x="2.7" y="-1.3" dx="0.4" dy="1.4" layer="1" rot="R90"/>
<smd name="ID1" x="2.7" y="-0.65" dx="0.4" dy="1.4" layer="1" rot="R90"/>
<smd name="VBUS1" x="2.7" y="1.3" dx="0.4" dy="1.4" layer="1" rot="R90"/>
<text x="-1.27" y="5.969" size="0.4064" layer="25">&gt;NAME</text>
<text x="-1.27" y="5.461" size="0.4064" layer="27">&gt;VALUE</text>
<hole x="2.2" y="1.9" drill="0.85"/>
<hole x="2.2" y="-1.9" drill="0.85"/>
</package>
</packages>
<symbols>
<symbol name="SOLAR_CELL">
<wire x1="-1.905" y1="1.27" x2="0" y2="-1.27" width="0.254" layer="94"/>
<wire x1="0" y1="-1.27" x2="1.905" y2="1.27" width="0.254" layer="94"/>
<wire x1="1.905" y1="1.27" x2="-1.905" y2="1.27" width="0.254" layer="94"/>
<wire x1="1.905" y1="-1.397" x2="-1.905" y2="-1.397" width="0.254" layer="94"/>
<wire x1="3.556" y1="1.016" x2="4.572" y2="2.032" width="0.1524" layer="94"/>
<wire x1="4.318" y1="0.254" x2="5.334" y2="1.27" width="0.1524" layer="94"/>
<text x="-3.81" y="-1.27" size="1.778" layer="95" rot="R180">&gt;NAME</text>
<text x="-3.81" y="1.27" size="1.778" layer="96" rot="R180">&gt;VALUE</text>
<pin name="A" x="0" y="2.54" visible="off" length="short" direction="pas" rot="R270"/>
<pin name="C" x="0" y="-2.54" visible="off" length="short" direction="pas" rot="R90"/>
<polygon width="0.1524" layer="94">
<vertex x="3.556" y="1.524"/>
<vertex x="4.064" y="1.016"/>
<vertex x="3.302" y="0.762"/>
</polygon>
<polygon width="0.1524" layer="94">
<vertex x="4.318" y="0.762"/>
<vertex x="4.826" y="0.254"/>
<vertex x="4.064" y="0"/>
</polygon>
<text x="5.08" y="-2.54" size="1.27" layer="94">Solar
cell</text>
</symbol>
<symbol name="MOUNTING_HOLE_SYMBOL">
<wire x1="0.254" y1="2.032" x2="2.032" y2="0.254" width="1.016" layer="94" curve="-75.749967" cap="flat"/>
<wire x1="-2.032" y1="0.254" x2="-0.254" y2="2.032" width="1.016" layer="94" curve="-75.749967" cap="flat"/>
<wire x1="-2.032" y1="-0.254" x2="-0.254" y2="-2.032" width="1.016" layer="94" curve="75.749967" cap="flat"/>
<wire x1="0.254" y1="-2.032" x2="2.032" y2="-0.254" width="1.016" layer="94" curve="75.749967" cap="flat"/>
<circle x="0" y="0" radius="1.524" width="0.0508" layer="94"/>
<text x="2.794" y="0.5842" size="1.778" layer="95">&gt;NAME</text>
<text x="2.794" y="-2.4638" size="1.778" layer="96">&gt;VALUE</text>
<pin name="MOUNT" x="-2.54" y="0" visible="off" length="short" direction="pas"/>
</symbol>
<symbol name="TSM_SERIES_2PINS_SAMTEC">
<text x="-4.064" y="5.08" size="1.778" layer="95">&gt;NAME</text>
<text x="-4.064" y="2.794" size="1.778" layer="96">&gt;VALUE</text>
<pin name="1" x="-5.08" y="0" visible="off" length="short" direction="pas" swaplevel="1"/>
<pin name="2" x="5.08" y="0" visible="off" length="short" direction="pas" swaplevel="1" rot="R180"/>
<wire x1="-2.54" y1="2.54" x2="-2.54" y2="-2.54" width="0.254" layer="94"/>
<wire x1="-2.54" y1="-2.54" x2="2.54" y2="-2.54" width="0.254" layer="94"/>
<wire x1="2.54" y1="-2.54" x2="2.54" y2="2.54" width="0.254" layer="94"/>
<wire x1="2.54" y1="2.54" x2="-2.54" y2="2.54" width="0.254" layer="94"/>
<text x="-1.905" y="-1.27" size="0.762" layer="94">TSM
SAMTEC
2 pins</text>
</symbol>
<symbol name="TEST_POINT">
<text x="-4.064" y="5.08" size="1.778" layer="95">&gt;NAME</text>
<text x="-4.064" y="2.794" size="1.778" layer="96">&gt;VALUE</text>
<pin name="1" x="-5.08" y="0" visible="off" length="short" direction="pas" swaplevel="1"/>
<wire x1="-2.54" y1="2.54" x2="-2.54" y2="-2.54" width="0.254" layer="94"/>
<wire x1="-2.54" y1="-2.54" x2="2.54" y2="-2.54" width="0.254" layer="94"/>
<wire x1="2.54" y1="-2.54" x2="2.54" y2="2.54" width="0.254" layer="94"/>
<wire x1="2.54" y1="2.54" x2="-2.54" y2="2.54" width="0.254" layer="94"/>
<text x="-1.905" y="-1.27" size="1.016" layer="94">Test
Point</text>
</symbol>
<symbol name="R-US">
<wire x1="-2.54" y1="0" x2="-2.159" y2="1.016" width="0.2032" layer="94"/>
<wire x1="-2.159" y1="1.016" x2="-1.524" y2="-1.016" width="0.2032" layer="94"/>
<wire x1="-1.524" y1="-1.016" x2="-0.889" y2="1.016" width="0.2032" layer="94"/>
<wire x1="-0.889" y1="1.016" x2="-0.254" y2="-1.016" width="0.2032" layer="94"/>
<wire x1="-0.254" y1="-1.016" x2="0.381" y2="1.016" width="0.2032" layer="94"/>
<wire x1="0.381" y1="1.016" x2="1.016" y2="-1.016" width="0.2032" layer="94"/>
<wire x1="1.016" y1="-1.016" x2="1.651" y2="1.016" width="0.2032" layer="94"/>
<wire x1="1.651" y1="1.016" x2="2.286" y2="-1.016" width="0.2032" layer="94"/>
<wire x1="2.286" y1="-1.016" x2="2.54" y2="0" width="0.2032" layer="94"/>
<text x="-3.81" y="1.4986" size="1.778" layer="95">&gt;NAME</text>
<text x="-3.81" y="-3.302" size="1.778" layer="96">&gt;VALUE</text>
<pin name="2" x="5.08" y="0" visible="off" length="short" direction="pas" swaplevel="1" rot="R180"/>
<pin name="1" x="-5.08" y="0" visible="off" length="short" direction="pas" swaplevel="1"/>
</symbol>
<symbol name="1_BATTERY">
<text x="-16.51" y="-5.08" size="1.778" layer="95" rot="R90">&gt;NAME</text>
<text x="19.05" y="-5.08" size="1.778" layer="96" rot="R90">&gt;VALUE</text>
<pin name="2" x="0" y="-27.94" visible="off" length="short" direction="pas" swaplevel="1" rot="R90"/>
<pin name="1" x="0" y="38.1" visible="off" length="short" direction="pas" swaplevel="1" rot="R270"/>
<wire x1="-15.24" y1="35.56" x2="15.24" y2="35.56" width="0.254" layer="94"/>
<wire x1="15.24" y1="35.56" x2="15.24" y2="-25.4" width="0.254" layer="94"/>
<wire x1="15.24" y1="-25.4" x2="-15.24" y2="-25.4" width="0.254" layer="94"/>
<wire x1="-15.24" y1="-25.4" x2="-15.24" y2="35.56" width="0.254" layer="94"/>
<text x="-2.54" y="30.48" size="1.27" layer="94">POS</text>
<text x="-2.54" y="-22.86" size="1.27" layer="94">NEG</text>
</symbol>
<symbol name="USB_AB">
<description>USB AB, 5-pins: USBVCC, GND, D+, D-, USBID.</description>
<wire x1="2.54" y1="6.35" x2="-2.54" y2="6.35" width="0.254" layer="94"/>
<wire x1="-2.54" y1="6.35" x2="-2.54" y2="-6.35" width="0.254" layer="94"/>
<wire x1="-2.54" y1="-6.35" x2="2.54" y2="-6.35" width="0.254" layer="94"/>
<pin name="D+" x="-5.08" y="0" visible="pad" length="short"/>
<pin name="D-" x="-5.08" y="-2.54" visible="pad" length="short"/>
<pin name="GND" x="-5.08" y="5.08" visible="pad" length="short"/>
<pin name="USBID" x="-5.08" y="2.54" visible="pad" length="short"/>
<pin name="VBUS" x="-5.08" y="-5.08" visible="pad" length="short"/>
<text x="1.27" y="-6.096" size="2.54" layer="94" rot="R90">USBAB</text>
</symbol>
</symbols>
<devicesets>
<deviceset name="KXOB22-04X3L_SOLAR_CELL">
<gates>
<gate name="G$1" symbol="SOLAR_CELL" x="0" y="0"/>
</gates>
<devices>
<device name="" package="KXOB22-04X3L_SOLAR_CELL">
<connects>
<connect gate="G$1" pin="A" pad="ANODE"/>
<connect gate="G$1" pin="C" pad="CATHODE"/>
</connects>
<technologies>
<technology name=""/>
</technologies>
</device>
</devices>
</deviceset>
<deviceset name="MOUNTING_PAD_2P3MM">
<gates>
<gate name="G$1" symbol="MOUNTING_HOLE_SYMBOL" x="0" y="0"/>
</gates>
<devices>
<device name="" package="2,3-PAD">
<connects>
<connect gate="G$1" pin="MOUNT" pad="PAD1"/>
</connects>
<technologies>
<technology name=""/>
</technologies>
</device>
</devices>
</deviceset>
<deviceset name="TSM_SERIES_2PINS_SAMTEC">
<description>TSM 0.1" pitch header, SAMTEC</description>
<gates>
<gate name="G$1" symbol="TSM_SERIES_2PINS_SAMTEC" x="0" y="0"/>
</gates>
<devices>
<device name="" package="TSM_2PINS_SAMTEC">
<connects>
<connect gate="G$1" pin="1" pad="1"/>
<connect gate="G$1" pin="2" pad="2"/>
</connects>
<technologies>
<technology name=""/>
</technologies>
</device>
</devices>
</deviceset>
<deviceset name="TEST_POINT__SQUARE">
<description>1mm x 1mm square pad on board</description>
<gates>
<gate name="G$1" symbol="TEST_POINT" x="0" y="0"/>
</gates>
<devices>
<device name="" package="TEST_POINT_SQUARE">
<connects>
<connect gate="G$1" pin="1" pad="1"/>
</connects>
<technologies>
<technology name=""/>
</technologies>
</device>
</devices>
</deviceset>
<deviceset name="DUMMY_RESISTOR">
<gates>
<gate name="G$1" symbol="R-US" x="0" y="0"/>
</gates>
<devices>
<device name="" package="R1206_DUMMY_R">
<connects>
<connect gate="G$1" pin="1" pad="1"/>
<connect gate="G$1" pin="2" pad="2"/>
</connects>
<technologies>
<technology name=""/>
</technologies>
</device>
</devices>
</deviceset>
<deviceset name="BATTERY">
<gates>
<gate name="G$1" symbol="1_BATTERY" x="0" y="-7.62"/>
</gates>
<devices>
<device name="" package="1_BATTERY">
<connects>
<connect gate="G$1" pin="1" pad="1"/>
<connect gate="G$1" pin="2" pad="2"/>
</connects>
<technologies>
<technology name=""/>
</technologies>
</device>
</devices>
</deviceset>
<deviceset name="MICRO_USB_CAGE" prefix="U" uservalue="yes">
<description>This is a USB AB connector that is compatible with USB OTG. i.e. this connector can serve as a host or device</description>
<gates>
<gate name="G$1" symbol="USB_AB" x="0" y="0"/>
</gates>
<devices>
<device name="&quot;&quot;" package="USB-MICRO-SMD">
<connects>
<connect gate="G$1" pin="D+" pad="D+1"/>
<connect gate="G$1" pin="D-" pad="D-1"/>
<connect gate="G$1" pin="GND" pad="GND1"/>
<connect gate="G$1" pin="USBID" pad="ID1"/>
<connect gate="G$1" pin="VBUS" pad="VBUS1"/>
</connects>
<technologies>
<technology name=""/>
</technologies>
</device>
</devices>
</deviceset>
</devicesets>
</library>
</drawing>
<compatibility>
<note version="6.3" minversion="6.2.2" severity="warning">
Since Version 6.2.2 text objects can contain more than one line,
which will not be processed correctly with this version.
</note>
</compatibility>
</eagle>
