<?xml version="1.0" encoding="utf-8"?>
<!DOCTYPE eagle SYSTEM "eagle.dtd">
<eagle version="7.3.0">
<drawing>
<settings>
<setting alwaysvectorfont="no"/>
<setting verticaltext="up"/>
</settings>
<grid distance="1" unitdist="mil" unit="mil" style="lines" multiple="1" display="yes" altdistance="0.1" altunitdist="mil" altunit="mil"/>
<layers>
<layer number="1" name="Top" color="4" fill="1" visible="yes" active="yes"/>
<layer number="16" name="Bottom" color="1" fill="1" visible="yes" active="yes"/>
<layer number="17" name="Pads" color="2" fill="1" visible="yes" active="yes"/>
<layer number="18" name="Vias" color="2" fill="1" visible="yes" active="yes"/>
<layer number="19" name="Unrouted" color="6" fill="1" visible="yes" active="yes"/>
<layer number="20" name="Dimension" color="15" fill="1" visible="yes" active="yes"/>
<layer number="21" name="tPlace" color="7" fill="1" visible="yes" active="yes"/>
<layer number="22" name="bPlace" color="7" fill="1" visible="yes" active="yes"/>
<layer number="23" name="tOrigins" color="15" fill="1" visible="yes" active="yes"/>
<layer number="24" name="bOrigins" color="15" fill="1" visible="yes" active="yes"/>
<layer number="25" name="tNames" color="7" fill="1" visible="yes" active="yes"/>
<layer number="26" name="bNames" color="7" fill="1" visible="yes" active="yes"/>
<layer number="27" name="tValues" color="7" fill="1" visible="yes" active="yes"/>
<layer number="28" name="bValues" color="7" fill="1" visible="yes" active="yes"/>
<layer number="29" name="tStop" color="7" fill="3" visible="yes" active="yes"/>
<layer number="30" name="bStop" color="7" fill="6" visible="yes" active="yes"/>
<layer number="31" name="tCream" color="7" fill="4" visible="yes" active="yes"/>
<layer number="32" name="bCream" color="7" fill="5" visible="yes" active="yes"/>
<layer number="33" name="tFinish" color="6" fill="3" visible="yes" active="yes"/>
<layer number="34" name="bFinish" color="6" fill="6" visible="yes" active="yes"/>
<layer number="35" name="tGlue" color="7" fill="4" visible="yes" active="yes"/>
<layer number="36" name="bGlue" color="7" fill="5" visible="yes" active="yes"/>
<layer number="37" name="tTest" color="7" fill="1" visible="yes" active="yes"/>
<layer number="38" name="bTest" color="7" fill="1" visible="yes" active="yes"/>
<layer number="39" name="tKeepout" color="4" fill="11" visible="yes" active="yes"/>
<layer number="40" name="bKeepout" color="1" fill="11" visible="yes" active="yes"/>
<layer number="41" name="tRestrict" color="4" fill="10" visible="yes" active="yes"/>
<layer number="42" name="bRestrict" color="1" fill="10" visible="yes" active="yes"/>
<layer number="43" name="vRestrict" color="2" fill="10" visible="yes" active="yes"/>
<layer number="44" name="Drills" color="7" fill="1" visible="yes" active="yes"/>
<layer number="45" name="Holes" color="7" fill="1" visible="yes" active="yes"/>
<layer number="46" name="Milling" color="3" fill="1" visible="yes" active="yes"/>
<layer number="47" name="Measures" color="7" fill="1" visible="yes" active="yes"/>
<layer number="48" name="Document" color="7" fill="1" visible="yes" active="yes"/>
<layer number="49" name="Reference" color="7" fill="1" visible="yes" active="yes"/>
<layer number="50" name="dxf" color="7" fill="1" visible="no" active="no"/>
<layer number="51" name="tDocu" color="7" fill="1" visible="yes" active="yes"/>
<layer number="52" name="bDocu" color="7" fill="1" visible="yes" active="yes"/>
<layer number="53" name="tGND_GNDA" color="7" fill="9" visible="no" active="no"/>
<layer number="54" name="bGND_GNDA" color="1" fill="9" visible="no" active="no"/>
<layer number="56" name="wert" color="7" fill="1" visible="no" active="no"/>
<layer number="57" name="tCAD" color="7" fill="1" visible="no" active="no"/>
<layer number="90" name="Modules" color="5" fill="1" visible="yes" active="yes"/>
<layer number="91" name="Nets" color="2" fill="1" visible="yes" active="yes"/>
<layer number="92" name="Busses" color="1" fill="1" visible="yes" active="yes"/>
<layer number="93" name="Pins" color="2" fill="1" visible="no" active="yes"/>
<layer number="94" name="Symbols" color="4" fill="1" visible="yes" active="yes"/>
<layer number="95" name="Names" color="7" fill="1" visible="yes" active="yes"/>
<layer number="96" name="Values" color="7" fill="1" visible="yes" active="yes"/>
<layer number="97" name="Info" color="7" fill="1" visible="yes" active="yes"/>
<layer number="98" name="Guide" color="6" fill="1" visible="yes" active="yes"/>
<layer number="99" name="SpiceOrder" color="5" fill="1" visible="no" active="yes"/>
<layer number="100" name="Muster" color="7" fill="1" visible="no" active="no"/>
<layer number="101" name="Patch_Top" color="12" fill="4" visible="yes" active="yes"/>
<layer number="102" name="Vscore" color="7" fill="1" visible="yes" active="yes"/>
<layer number="103" name="tMap" color="7" fill="1" visible="yes" active="yes"/>
<layer number="104" name="Name" color="16" fill="1" visible="yes" active="yes"/>
<layer number="105" name="tPlate" color="7" fill="1" visible="yes" active="yes"/>
<layer number="106" name="bPlate" color="7" fill="1" visible="yes" active="yes"/>
<layer number="107" name="Crop" color="7" fill="1" visible="yes" active="yes"/>
<layer number="108" name="tplace-old" color="10" fill="1" visible="yes" active="yes"/>
<layer number="109" name="ref-old" color="11" fill="1" visible="yes" active="yes"/>
<layer number="110" name="fp0" color="7" fill="1" visible="yes" active="yes"/>
<layer number="111" name="LPC17xx" color="7" fill="1" visible="yes" active="yes"/>
<layer number="112" name="tSilk" color="7" fill="1" visible="yes" active="yes"/>
<layer number="113" name="IDFDebug" color="7" fill="1" visible="yes" active="yes"/>
<layer number="116" name="Patch_BOT" color="9" fill="4" visible="yes" active="yes"/>
<layer number="121" name="_tsilk" color="7" fill="1" visible="yes" active="yes"/>
<layer number="122" name="_bsilk" color="7" fill="1" visible="yes" active="yes"/>
<layer number="123" name="tTestmark" color="7" fill="1" visible="yes" active="yes"/>
<layer number="124" name="bTestmark" color="7" fill="1" visible="yes" active="yes"/>
<layer number="125" name="_tNames" color="7" fill="1" visible="yes" active="yes"/>
<layer number="126" name="_bNames" color="7" fill="1" visible="yes" active="yes"/>
<layer number="127" name="_tValues" color="7" fill="1" visible="yes" active="yes"/>
<layer number="128" name="_bValues" color="7" fill="1" visible="yes" active="yes"/>
<layer number="131" name="tAdjust" color="7" fill="1" visible="yes" active="yes"/>
<layer number="132" name="bAdjust" color="7" fill="1" visible="yes" active="yes"/>
<layer number="144" name="Drill_legend" color="7" fill="1" visible="yes" active="yes"/>
<layer number="150" name="Notes" color="7" fill="1" visible="yes" active="yes"/>
<layer number="151" name="HeatSink" color="7" fill="1" visible="yes" active="yes"/>
<layer number="152" name="_bDocu" color="7" fill="1" visible="yes" active="yes"/>
<layer number="153" name="FabDoc1" color="7" fill="1" visible="yes" active="yes"/>
<layer number="154" name="FabDoc2" color="7" fill="1" visible="yes" active="yes"/>
<layer number="155" name="FabDoc3" color="7" fill="1" visible="yes" active="yes"/>
<layer number="199" name="Contour" color="7" fill="1" visible="yes" active="yes"/>
<layer number="200" name="200bmp" color="1" fill="10" visible="yes" active="yes"/>
<layer number="201" name="201bmp" color="2" fill="10" visible="yes" active="yes"/>
<layer number="202" name="202bmp" color="3" fill="10" visible="yes" active="yes"/>
<layer number="203" name="203bmp" color="4" fill="10" visible="yes" active="yes"/>
<layer number="204" name="204bmp" color="5" fill="10" visible="yes" active="yes"/>
<layer number="205" name="205bmp" color="6" fill="10" visible="yes" active="yes"/>
<layer number="206" name="206bmp" color="7" fill="10" visible="yes" active="yes"/>
<layer number="207" name="207bmp" color="8" fill="10" visible="yes" active="yes"/>
<layer number="208" name="208bmp" color="9" fill="10" visible="yes" active="yes"/>
<layer number="209" name="209bmp" color="7" fill="1" visible="yes" active="yes"/>
<layer number="210" name="210bmp" color="7" fill="1" visible="yes" active="yes"/>
<layer number="211" name="211bmp" color="7" fill="1" visible="yes" active="yes"/>
<layer number="212" name="212bmp" color="7" fill="1" visible="yes" active="yes"/>
<layer number="213" name="213bmp" color="7" fill="1" visible="yes" active="yes"/>
<layer number="214" name="214bmp" color="7" fill="1" visible="yes" active="yes"/>
<layer number="215" name="215bmp" color="7" fill="1" visible="yes" active="yes"/>
<layer number="216" name="216bmp" color="7" fill="1" visible="yes" active="yes"/>
<layer number="217" name="217bmp" color="18" fill="1" visible="no" active="no"/>
<layer number="218" name="218bmp" color="19" fill="1" visible="no" active="no"/>
<layer number="219" name="219bmp" color="20" fill="1" visible="no" active="no"/>
<layer number="220" name="220bmp" color="21" fill="1" visible="no" active="no"/>
<layer number="221" name="221bmp" color="22" fill="1" visible="no" active="no"/>
<layer number="222" name="222bmp" color="23" fill="1" visible="no" active="no"/>
<layer number="223" name="223bmp" color="24" fill="1" visible="no" active="no"/>
<layer number="224" name="224bmp" color="25" fill="1" visible="no" active="no"/>
<layer number="225" name="225bmp" color="7" fill="1" visible="yes" active="yes"/>
<layer number="226" name="226bmp" color="7" fill="1" visible="yes" active="yes"/>
<layer number="227" name="227bmp" color="7" fill="1" visible="yes" active="yes"/>
<layer number="228" name="228bmp" color="7" fill="1" visible="yes" active="yes"/>
<layer number="229" name="229bmp" color="7" fill="1" visible="yes" active="yes"/>
<layer number="230" name="230bmp" color="7" fill="1" visible="yes" active="yes"/>
<layer number="231" name="231bmp" color="7" fill="1" visible="yes" active="yes"/>
<layer number="248" name="Housing" color="7" fill="1" visible="yes" active="yes"/>
<layer number="249" name="Edge" color="7" fill="1" visible="yes" active="yes"/>
<layer number="250" name="Descript" color="3" fill="1" visible="no" active="no"/>
<layer number="251" name="SMDround" color="12" fill="11" visible="no" active="no"/>
<layer number="254" name="cooling" color="7" fill="1" visible="yes" active="yes"/>
</layers>
<library>
<packages>
<package name="C1206">
<description>&lt;b&gt;CAPACITOR&lt;/b&gt;</description>
<wire x1="-2.473" y1="0.983" x2="2.473" y2="0.983" width="0.0508" layer="39"/>
<wire x1="2.473" y1="-0.983" x2="-2.473" y2="-0.983" width="0.0508" layer="39"/>
<wire x1="-2.473" y1="-0.983" x2="-2.473" y2="0.983" width="0.0508" layer="39"/>
<wire x1="2.473" y1="0.983" x2="2.473" y2="-0.983" width="0.0508" layer="39"/>
<wire x1="-0.965" y1="0.787" x2="0.965" y2="0.787" width="0.1016" layer="51"/>
<wire x1="-0.965" y1="-0.787" x2="0.965" y2="-0.787" width="0.1016" layer="51"/>
<smd name="1" x="-1.4" y="0" dx="1.6" dy="1.8" layer="1"/>
<smd name="2" x="1.4" y="0" dx="1.6" dy="1.8" layer="1"/>
<text x="-1.27" y="1.27" size="1.27" layer="25">&gt;NAME</text>
<text x="-1.27" y="-2.54" size="1.27" layer="27">&gt;VALUE</text>
<rectangle x1="-1.7018" y1="-0.8509" x2="-0.9517" y2="0.8491" layer="51"/>
<rectangle x1="0.9517" y1="-0.8491" x2="1.7018" y2="0.8509" layer="51"/>
<rectangle x1="-0.1999" y1="-0.4001" x2="0.1999" y2="0.4001" layer="35"/>
</package>
<package name="C0805">
<description>&lt;b&gt;CAPACITOR&lt;/b&gt;&lt;p&gt;</description>
<wire x1="-1.973" y1="0.983" x2="1.973" y2="0.983" width="0.0508" layer="39"/>
<wire x1="1.973" y1="-0.983" x2="-1.973" y2="-0.983" width="0.0508" layer="39"/>
<wire x1="-1.973" y1="-0.983" x2="-1.973" y2="0.983" width="0.0508" layer="39"/>
<wire x1="-0.381" y1="0.66" x2="0.381" y2="0.66" width="0.1016" layer="51"/>
<wire x1="-0.356" y1="-0.66" x2="0.381" y2="-0.66" width="0.1016" layer="51"/>
<wire x1="1.973" y1="0.983" x2="1.973" y2="-0.983" width="0.0508" layer="39"/>
<smd name="1" x="-0.95" y="0" dx="1.3" dy="1.5" layer="1"/>
<smd name="2" x="0.95" y="0" dx="1.3" dy="1.5" layer="1"/>
<text x="-1.27" y="1.27" size="1.27" layer="25">&gt;NAME</text>
<text x="-1.27" y="-2.54" size="1.27" layer="27">&gt;VALUE</text>
<rectangle x1="-1.0922" y1="-0.7239" x2="-0.3421" y2="0.7262" layer="51"/>
<rectangle x1="0.3556" y1="-0.7239" x2="1.1057" y2="0.7262" layer="51"/>
<rectangle x1="-0.1001" y1="-0.4001" x2="0.1001" y2="0.4001" layer="35"/>
</package>
<package name="MGV06051R0M-10__1UH">
<description>&lt;b&gt;INDUCTOR&lt;/b&gt;&lt;p&gt;
chip</description>
<wire x1="-4.5732" y1="2.1002" x2="4.6732" y2="2.1002" width="0.1016" layer="21"/>
<wire x1="-4.6478" y1="-2.1002" x2="4.5732" y2="-2.1002" width="0.1016" layer="21"/>
<smd name="1" x="-3.1" y="0" dx="2.5" dy="3.5" layer="1"/>
<smd name="2" x="3.1" y="0" dx="2.5" dy="3.5" layer="1"/>
<text x="-3.305" y="2.305" size="1.27" layer="25">&gt;NAME</text>
<text x="-3.405" y="-3.575" size="1.27" layer="27">&gt;VALUE</text>
<rectangle x1="-2.3876" y1="-1.651" x2="-1.4376" y2="1.649" layer="51"/>
<rectangle x1="1.4478" y1="-1.651" x2="2.3978" y2="1.649" layer="51"/>
<wire x1="-4.5998" y1="-2.1478" x2="-4.5998" y2="2.1732" width="0.1016" layer="51"/>
<wire x1="4.6002" y1="-2.1478" x2="4.6002" y2="2.1732" width="0.1016" layer="51"/>
</package>
<package name="SRP7030-2R2M__2P2UH">
<description>&lt;b&gt;INDUCTOR&lt;/b&gt;&lt;p&gt;
molded</description>
<wire x1="-4.613" y1="2.02" x2="4.719" y2="2.018" width="0.0508" layer="39"/>
<wire x1="4.72" y1="-2.025" x2="-4.614" y2="-2.024" width="0.0508" layer="39"/>
<wire x1="-4.614" y1="-2.024" x2="-4.613" y2="2.02" width="0.0508" layer="39"/>
<wire x1="4.719" y1="2.018" x2="4.72" y2="-2.025" width="0.0508" layer="39"/>
<wire x1="-4.875" y1="2.17" x2="4.875" y2="2.17" width="0.1524" layer="21"/>
<wire x1="4.875" y1="2.17" x2="4.875" y2="-2.17" width="0.1524" layer="51"/>
<wire x1="4.875" y1="-2.17" x2="-4.875" y2="-2.17" width="0.1524" layer="21"/>
<wire x1="-4.875" y1="-2.17" x2="-4.875" y2="2.17" width="0.1524" layer="51"/>
<smd name="1" x="-3.1" y="0" dx="2.5" dy="3.5" layer="1"/>
<smd name="2" x="3.1" y="0" dx="2.5" dy="3.5" layer="1"/>
<text x="-0.721" y="0.604" size="0.254" layer="25" distance="5">&gt;NAME</text>
<text x="-0.733" y="-0.778" size="0.254" layer="27">&gt;VALUE</text>
<rectangle x1="-1" y1="-1.5" x2="1" y2="1.5" layer="35"/>
</package>
<package name="R1206">
<description>&lt;b&gt;RESISTOR&lt;/b&gt;</description>
<wire x1="0.9525" y1="-0.8128" x2="-0.9652" y2="-0.8128" width="0.1524" layer="51"/>
<wire x1="0.9525" y1="0.8128" x2="-0.9652" y2="0.8128" width="0.1524" layer="51"/>
<wire x1="-2.473" y1="0.983" x2="2.473" y2="0.983" width="0.0508" layer="39"/>
<wire x1="2.473" y1="0.983" x2="2.473" y2="-0.983" width="0.0508" layer="39"/>
<wire x1="2.473" y1="-0.983" x2="-2.473" y2="-0.983" width="0.0508" layer="39"/>
<wire x1="-2.473" y1="-0.983" x2="-2.473" y2="0.983" width="0.0508" layer="39"/>
<smd name="2" x="1.422" y="0" dx="1.6" dy="1.803" layer="1"/>
<smd name="1" x="-1.422" y="0" dx="1.6" dy="1.803" layer="1"/>
<text x="-1.27" y="1.27" size="1.27" layer="25">&gt;NAME</text>
<text x="-1.27" y="-2.54" size="1.27" layer="27">&gt;VALUE</text>
<rectangle x1="-1.6891" y1="-0.8763" x2="-0.9525" y2="0.8763" layer="51"/>
<rectangle x1="0.9525" y1="-0.8763" x2="1.6891" y2="0.8763" layer="51"/>
<rectangle x1="-0.3" y1="-0.7" x2="0.3" y2="0.7" layer="35"/>
</package>
<package name="R2512">
<description>&lt;b&gt;RESISTOR&lt;/b&gt;</description>
<wire x1="-2.362" y1="1.473" x2="2.387" y2="1.473" width="0.1524" layer="51"/>
<wire x1="-2.362" y1="-1.473" x2="2.387" y2="-1.473" width="0.1524" layer="51"/>
<wire x1="-3.973" y1="1.983" x2="3.973" y2="1.983" width="0.0508" layer="39"/>
<wire x1="3.973" y1="1.983" x2="3.973" y2="-1.983" width="0.0508" layer="39"/>
<wire x1="3.973" y1="-1.983" x2="-3.973" y2="-1.983" width="0.0508" layer="39"/>
<wire x1="-3.973" y1="-1.983" x2="-3.973" y2="1.983" width="0.0508" layer="39"/>
<smd name="1" x="-2.8" y="0" dx="1.8" dy="3.2" layer="1"/>
<smd name="2" x="2.8" y="0" dx="1.8" dy="3.2" layer="1"/>
<text x="-2.54" y="1.905" size="1.27" layer="25">&gt;NAME</text>
<text x="-2.54" y="-3.175" size="1.27" layer="27">&gt;VALUE</text>
<rectangle x1="-3.2004" y1="-1.5494" x2="-2.3505" y2="1.5507" layer="51"/>
<rectangle x1="2.3622" y1="-1.5494" x2="3.2121" y2="1.5507" layer="51"/>
<rectangle x1="-0.5001" y1="-1" x2="0.5001" y2="1" layer="35"/>
</package>
<package name="R2010">
<description>&lt;b&gt;RESISTOR&lt;/b&gt;</description>
<wire x1="-1.662" y1="1.245" x2="1.662" y2="1.245" width="0.1524" layer="51"/>
<wire x1="-1.637" y1="-1.245" x2="1.687" y2="-1.245" width="0.1524" layer="51"/>
<wire x1="-3.473" y1="1.483" x2="3.473" y2="1.483" width="0.0508" layer="39"/>
<wire x1="3.473" y1="1.483" x2="3.473" y2="-1.483" width="0.0508" layer="39"/>
<wire x1="3.473" y1="-1.483" x2="-3.473" y2="-1.483" width="0.0508" layer="39"/>
<wire x1="-3.473" y1="-1.483" x2="-3.473" y2="1.483" width="0.0508" layer="39"/>
<smd name="1" x="-2.2" y="0" dx="1.8" dy="2.7" layer="1"/>
<smd name="2" x="2.2" y="0" dx="1.8" dy="2.7" layer="1"/>
<text x="-3.175" y="1.905" size="1.27" layer="25">&gt;NAME</text>
<text x="-3.175" y="-3.175" size="1.27" layer="27">&gt;VALUE</text>
<rectangle x1="-2.4892" y1="-1.3208" x2="-1.6393" y2="1.3292" layer="51"/>
<rectangle x1="1.651" y1="-1.3208" x2="2.5009" y2="1.3292" layer="51"/>
</package>
<package name="744031220__22UH">
<description>&lt;b&gt;Package MSS7341&lt;/b&gt; 6.6 × 6.6 mm x 4.1 mm high, shielded inductors&lt;p&gt;
Source: http://www.farnell.com/datasheets/1681958.pdf</description>
<polygon width="0.2" layer="1">
<vertex x="-2.15" y="0.55"/>
<vertex x="-2.15" y="2.15"/>
<vertex x="2.15" y="2.15"/>
<vertex x="2.15" y="0.55"/>
<vertex x="1.3" y="0.55" curve="133.798882"/>
<vertex x="-1.3" y="0.55"/>
</polygon>
<polygon width="0.3" layer="29">
<vertex x="-2.2" y="0.5"/>
<vertex x="-2.2" y="2.2"/>
<vertex x="2.2" y="2.2"/>
<vertex x="2.2" y="0.5"/>
<vertex x="1.25" y="0.5" curve="133.798882"/>
<vertex x="-1.25" y="0.5"/>
</polygon>
<polygon width="0.1" layer="31">
<vertex x="-2.15" y="0.55"/>
<vertex x="-2.15" y="2.15"/>
<vertex x="2.15" y="2.15"/>
<vertex x="2.15" y="0.55"/>
<vertex x="1.3" y="0.55" curve="133.798882"/>
<vertex x="-1.3" y="0.55"/>
</polygon>
<smd name="1" x="0" y="1.75" dx="0.5" dy="0.5" layer="1" stop="no" cream="no"/>
<polygon width="0.2" layer="1">
<vertex x="2.15" y="-0.55"/>
<vertex x="2.15" y="-2.15"/>
<vertex x="-2.15" y="-2.15"/>
<vertex x="-2.15" y="-0.55"/>
<vertex x="-1.3" y="-0.55" curve="133.798882"/>
<vertex x="1.3" y="-0.55"/>
</polygon>
<polygon width="0.3" layer="29">
<vertex x="2.2" y="-0.5"/>
<vertex x="2.2" y="-2.2"/>
<vertex x="-2.2" y="-2.2"/>
<vertex x="-2.2" y="-0.55"/>
<vertex x="-1.25" y="-0.55" curve="133.798882"/>
<vertex x="1.25" y="-0.55"/>
</polygon>
<polygon width="0.1" layer="31">
<vertex x="2.15" y="-0.55"/>
<vertex x="2.15" y="-2.15"/>
<vertex x="-2.15" y="-2.15"/>
<vertex x="-2.15" y="-0.55"/>
<vertex x="-1.3" y="-0.55" curve="133.798882"/>
<vertex x="1.3" y="-0.55"/>
</polygon>
<smd name="2" x="0" y="-1.75" dx="0.5" dy="0.5" layer="1" rot="R180" stop="no" cream="no"/>
<text x="-2.336" y="2.734" size="0.4" layer="25">&gt;NAME</text>
<text x="-0.29" y="2.7455" size="0.4" layer="27">&gt;VALUE</text>
<wire x1="-2.5" y1="-2.5" x2="-2.5" y2="2.5" width="0.2032" layer="21"/>
<wire x1="-2.5" y1="2.5" x2="2.5" y2="2.5" width="0.2032" layer="21"/>
<wire x1="2.5" y1="2.5" x2="2.5" y2="-2.5" width="0.2032" layer="21"/>
<wire x1="2.5" y1="-2.5" x2="-2.5" y2="-2.5" width="0.2032" layer="21"/>
</package>
<package name="C1005">
<description>&lt;b&gt;CAPACITOR&lt;/b&gt;</description>
<wire x1="-0.245" y1="0.224" x2="0.245" y2="0.224" width="0.1524" layer="51"/>
<wire x1="0.245" y1="-0.224" x2="-0.245" y2="-0.224" width="0.1524" layer="51"/>
<wire x1="-1.473" y1="0.483" x2="1.473" y2="0.483" width="0.0508" layer="39"/>
<wire x1="1.473" y1="0.483" x2="1.473" y2="-0.483" width="0.0508" layer="39"/>
<wire x1="1.473" y1="-0.483" x2="-1.473" y2="-0.483" width="0.0508" layer="39"/>
<wire x1="-1.473" y1="-0.483" x2="-1.473" y2="0.483" width="0.0508" layer="39"/>
<smd name="1" x="-0.65" y="0" dx="0.7" dy="0.9" layer="1"/>
<smd name="2" x="0.65" y="0" dx="0.7" dy="0.9" layer="1"/>
<text x="-0.635" y="0.635" size="1.27" layer="25">&gt;NAME</text>
<text x="-0.635" y="-1.905" size="1.27" layer="27">&gt;VALUE</text>
<rectangle x1="-0.554" y1="-0.3048" x2="-0.254" y2="0.2951" layer="51"/>
<rectangle x1="0.2588" y1="-0.3048" x2="0.5588" y2="0.2951" layer="51"/>
<rectangle x1="-0.1999" y1="-0.3" x2="0.1999" y2="0.3" layer="35"/>
</package>
<package name="L1008">
<description>&lt;b&gt;CAPACITOR&lt;/b&gt;</description>
<wire x1="-1.2" y1="1.2" x2="1.2" y2="1.2" width="0.0508" layer="39"/>
<wire x1="1.2" y1="1.2" x2="1.2" y2="-1.2" width="0.0508" layer="39"/>
<wire x1="1.2" y1="-1.2" x2="-1.2" y2="-1.2" width="0.0508" layer="39"/>
<wire x1="-1.2" y1="-1.2" x2="-1.2" y2="1.2" width="0.0508" layer="39"/>
<smd name="1" x="-0.65" y="0" dx="0.8" dy="2.2" layer="1"/>
<smd name="2" x="0.65" y="0" dx="0.8" dy="2.2" layer="1"/>
<text x="-1.716" y="-1.007" size="0.33" layer="25" rot="R90">&gt;NAME</text>
<text x="-1.287" y="-1.037" size="0.33" layer="27" rot="R90">&gt;VALUE</text>
<rectangle x1="-0.165" y1="-1.05" x2="0.165" y2="1.05" layer="35"/>
<wire x1="-1.2" y1="1.2" x2="1.2" y2="1.2" width="0.04" layer="21"/>
<wire x1="1.2" y1="1.2" x2="1.2" y2="-1.2" width="0.04" layer="21"/>
<wire x1="1.2" y1="-1.2" x2="-1.2" y2="-1.2" width="0.04" layer="21"/>
<wire x1="-1.2" y1="-1.2" x2="-1.2" y2="1.2" width="0.04" layer="21"/>
</package>
<package name="MSS1278T-223__22UH">
<description>&lt;b&gt;INDUCTOR&lt;/b&gt;&lt;p&gt;
chip</description>
<smd name="1" x="-4.25" y="0" dx="4" dy="5.5" layer="1"/>
<smd name="2" x="4.25" y="0" dx="4" dy="5.5" layer="1"/>
<text x="-5.87" y="3.137" size="0.4" layer="25">&gt;NAME</text>
<text x="-3.917" y="3.182" size="0.4" layer="27">&gt;VALUE</text>
<wire x1="-6.67" y1="3.075" x2="6.67" y2="3.075" width="0.05" layer="21"/>
<wire x1="6.67" y1="3.075" x2="6.67" y2="-3.075" width="0.05" layer="21"/>
<wire x1="6.67" y1="-3.075" x2="-6.67" y2="-3.075" width="0.05" layer="21"/>
<wire x1="-6.67" y1="-3.075" x2="-6.67" y2="3.075" width="0.05" layer="21"/>
<wire x1="-6.67" y1="3.075" x2="6.67" y2="3.075" width="0.05" layer="39"/>
<wire x1="6.67" y1="3.075" x2="6.67" y2="-3.075" width="0.05" layer="39"/>
<wire x1="6.67" y1="-3.075" x2="-6.67" y2="-3.075" width="0.05" layer="39"/>
<wire x1="-6.67" y1="-3.075" x2="-6.67" y2="3.075" width="0.05" layer="39"/>
<rectangle x1="-1.9" y1="-2.7" x2="1.9" y2="2.7" layer="35"/>
</package>
<package name="MSS1278T-103__10UH">
<description>&lt;b&gt;INDUCTOR&lt;/b&gt;&lt;p&gt;
chip</description>
<smd name="1" x="-4.25" y="0" dx="4" dy="5.5" layer="1"/>
<smd name="2" x="4.25" y="0" dx="4" dy="5.5" layer="1"/>
<text x="-5.87" y="3.137" size="0.4" layer="25">&gt;NAME</text>
<text x="-3.917" y="3.182" size="0.4" layer="27">&gt;VALUE</text>
<wire x1="-6.67" y1="3.075" x2="6.67" y2="3.075" width="0.05" layer="21"/>
<wire x1="6.67" y1="3.075" x2="6.67" y2="-3.075" width="0.05" layer="21"/>
<wire x1="6.67" y1="-3.075" x2="-6.67" y2="-3.075" width="0.05" layer="21"/>
<wire x1="-6.67" y1="-3.075" x2="-6.67" y2="3.075" width="0.05" layer="21"/>
<wire x1="-6.67" y1="3.075" x2="6.67" y2="3.075" width="0.05" layer="39"/>
<wire x1="6.67" y1="3.075" x2="6.67" y2="-3.075" width="0.05" layer="39"/>
<wire x1="6.67" y1="-3.075" x2="-6.67" y2="-3.075" width="0.05" layer="39"/>
<wire x1="-6.67" y1="-3.075" x2="-6.67" y2="3.075" width="0.05" layer="39"/>
<rectangle x1="-1.9" y1="-2.7" x2="1.9" y2="2.7" layer="35"/>
</package>
<package name="R0402">
<description>&lt;b&gt;RESISTOR&lt;/b&gt;</description>
<wire x1="-0.245" y1="0.224" x2="0.245" y2="0.224" width="0.1524" layer="51"/>
<wire x1="0.245" y1="-0.224" x2="-0.245" y2="-0.224" width="0.1524" layer="51"/>
<wire x1="-1.473" y1="0.483" x2="1.473" y2="0.483" width="0.0508" layer="39"/>
<wire x1="1.473" y1="0.483" x2="1.473" y2="-0.483" width="0.0508" layer="39"/>
<wire x1="1.473" y1="-0.483" x2="-1.473" y2="-0.483" width="0.0508" layer="39"/>
<wire x1="-1.473" y1="-0.483" x2="-1.473" y2="0.483" width="0.0508" layer="39"/>
<smd name="1" x="-0.65" y="0" dx="0.7" dy="0.9" layer="1"/>
<smd name="2" x="0.65" y="0" dx="0.7" dy="0.9" layer="1"/>
<text x="-1.135" y="0.565" size="0.4" layer="25">&gt;NAME</text>
<text x="-1.165" y="-0.955" size="0.4" layer="27">&gt;VALUE</text>
<rectangle x1="-0.554" y1="-0.3048" x2="-0.254" y2="0.2951" layer="51"/>
<rectangle x1="0.2588" y1="-0.3048" x2="0.5588" y2="0.2951" layer="51"/>
<rectangle x1="-0.1999" y1="-0.4001" x2="0.1999" y2="0.4001" layer="35"/>
</package>
<package name="R0603">
<description>&lt;b&gt;RESISTOR&lt;/b&gt;</description>
<wire x1="-0.432" y1="-0.356" x2="0.432" y2="-0.356" width="0.1524" layer="51"/>
<wire x1="0.432" y1="0.356" x2="-0.432" y2="0.356" width="0.1524" layer="51"/>
<wire x1="-1.473" y1="0.983" x2="1.473" y2="0.983" width="0.0508" layer="39"/>
<wire x1="1.473" y1="0.983" x2="1.473" y2="-0.983" width="0.0508" layer="39"/>
<wire x1="1.473" y1="-0.983" x2="-1.473" y2="-0.983" width="0.0508" layer="39"/>
<wire x1="-1.473" y1="-0.983" x2="-1.473" y2="0.983" width="0.0508" layer="39"/>
<smd name="1" x="-0.85" y="0" dx="1" dy="1.1" layer="1"/>
<smd name="2" x="0.85" y="0" dx="1" dy="1.1" layer="1"/>
<text x="-0.635" y="0.635" size="1.27" layer="25">&gt;NAME</text>
<text x="-0.635" y="-1.905" size="1.27" layer="27">&gt;VALUE</text>
<rectangle x1="0.4318" y1="-0.4318" x2="0.8382" y2="0.4318" layer="51"/>
<rectangle x1="-0.8382" y1="-0.4318" x2="-0.4318" y2="0.4318" layer="51"/>
<rectangle x1="-0.1999" y1="-0.4001" x2="0.1999" y2="0.4001" layer="35"/>
</package>
<package name="R0805">
<description>&lt;b&gt;RESISTOR&lt;/b&gt;&lt;p&gt;</description>
<wire x1="-0.41" y1="0.635" x2="0.41" y2="0.635" width="0.1524" layer="51"/>
<wire x1="-0.41" y1="-0.635" x2="0.41" y2="-0.635" width="0.1524" layer="51"/>
<wire x1="-1.973" y1="0.983" x2="1.973" y2="0.983" width="0.0508" layer="39"/>
<wire x1="1.973" y1="0.983" x2="1.973" y2="-0.983" width="0.0508" layer="39"/>
<wire x1="1.973" y1="-0.983" x2="-1.973" y2="-0.983" width="0.0508" layer="39"/>
<wire x1="-1.973" y1="-0.983" x2="-1.973" y2="0.983" width="0.0508" layer="39"/>
<smd name="1" x="-0.95" y="0" dx="1.3" dy="1.5" layer="1"/>
<smd name="2" x="0.95" y="0" dx="1.3" dy="1.5" layer="1"/>
<text x="-0.635" y="1.27" size="1.27" layer="25">&gt;NAME</text>
<text x="-0.635" y="-2.54" size="1.27" layer="27">&gt;VALUE</text>
<rectangle x1="0.4064" y1="-0.6985" x2="1.0564" y2="0.7015" layer="51"/>
<rectangle x1="-1.0668" y1="-0.6985" x2="-0.4168" y2="0.7015" layer="51"/>
<rectangle x1="-0.1999" y1="-0.5001" x2="0.1999" y2="0.5001" layer="35"/>
</package>
<package name="VLS6045EX-6R8M__6P8UH">
<description>&lt;b&gt;INDUCTOR&lt;/b&gt;&lt;p&gt;
chip</description>
<smd name="1" x="-3.05" y="0" dx="1.9" dy="5.1" layer="1"/>
<smd name="2" x="3.05" y="0" dx="1.9" dy="5.1" layer="1"/>
<text x="-4.05" y="2.987" size="0.4" layer="25">&gt;NAME</text>
<text x="-1.837" y="2.992" size="0.4" layer="27">&gt;VALUE</text>
<wire x1="-4.35" y1="2.8" x2="4.35" y2="2.8" width="0.05" layer="21"/>
<wire x1="4.35" y1="2.8" x2="4.35" y2="-2.8" width="0.05" layer="21"/>
<wire x1="4.35" y1="-2.8" x2="-4.35" y2="-2.8" width="0.05" layer="21"/>
<wire x1="-4.35" y1="-2.8" x2="-4.35" y2="2.8" width="0.05" layer="21"/>
<wire x1="-4.35" y1="2.8" x2="4.35" y2="2.8" width="0.05" layer="39"/>
<wire x1="4.35" y1="2.8" x2="4.35" y2="-2.8" width="0.05" layer="39"/>
<wire x1="4.35" y1="-2.8" x2="-4.35" y2="-2.8" width="0.05" layer="39"/>
<wire x1="-4.35" y1="-2.8" x2="-4.35" y2="2.8" width="0.05" layer="39"/>
<rectangle x1="-1.6" y1="-2.4" x2="1.6" y2="2.4" layer="35"/>
</package>
<package name="EEE-1HA220WP__22UF_ECAP">
<description>&lt;b&gt;CAPACITOR&lt;/b&gt;</description>
<wire x1="-3.556" y1="3.683" x2="3.556" y2="3.683" width="0.0508" layer="39"/>
<wire x1="3.556" y1="-3.683" x2="-3.556" y2="-3.683" width="0.0508" layer="39"/>
<wire x1="-3.556" y1="-3.683" x2="-3.556" y2="3.683" width="0.0508" layer="39"/>
<wire x1="3.556" y1="3.683" x2="3.556" y2="-3.683" width="0.0508" layer="39"/>
<smd name="P" x="0" y="-2.794" dx="1.778" dy="4.064" layer="1"/>
<smd name="N" x="0" y="2.794" dx="1.778" dy="4.064" layer="1"/>
<text x="-5.1816" y="-3.1242" size="1.27" layer="25" rot="R90">&gt;NAME</text>
<text x="-3.7592" y="-3.1496" size="1.27" layer="27" rot="R90">&gt;VALUE</text>
<rectangle x1="-0.889" y1="-0.4001" x2="0.889" y2="0.4001" layer="35"/>
<wire x1="3.429" y1="3.429" x2="3.429" y2="-3.429" width="0.127" layer="21"/>
<wire x1="-3.429" y1="-3.429" x2="-3.429" y2="3.429" width="0.127" layer="21"/>
<text x="-1.8034" y="-3.5814" size="1.27" layer="21" ratio="6" rot="R180">+</text>
<text x="1.9304" y="-3.6068" size="1.27" layer="21" ratio="6" rot="R270">+</text>
<rectangle x1="1.143" y1="-3.175" x2="3.048" y2="3.175" layer="35"/>
<rectangle x1="-3.048" y1="-3.175" x2="-1.143" y2="3.175" layer="35"/>
<wire x1="-3.429" y1="3.429" x2="-1.397" y2="3.429" width="0.127" layer="21"/>
<wire x1="1.397" y1="3.429" x2="3.429" y2="3.429" width="0.127" layer="21"/>
<wire x1="1.397" y1="-3.429" x2="3.429" y2="-3.429" width="0.127" layer="21"/>
<wire x1="-3.429" y1="-3.429" x2="-1.397" y2="-3.429" width="0.127" layer="21"/>
</package>
<package name="SEMI_CIRCULAR_INDUCTOR_PADS">
<description>&lt;b&gt;Package MSS7341&lt;/b&gt; 6.6 × 6.6 mm x 4.1 mm high, shielded inductors&lt;p&gt;
Source: http://www.farnell.com/datasheets/1681958.pdf</description>
<polygon width="0.2" layer="1">
<vertex x="-3.45" y="1.15"/>
<vertex x="-3.45" y="3.45"/>
<vertex x="3.45" y="3.45"/>
<vertex x="3.45" y="1.15"/>
<vertex x="2.6875" y="1.15" curve="133.798882"/>
<vertex x="-2.6875" y="1.15"/>
</polygon>
<polygon width="0.3" layer="29">
<vertex x="-3.45" y="1.15"/>
<vertex x="-3.45" y="3.45"/>
<vertex x="3.45" y="3.45"/>
<vertex x="3.45" y="1.15"/>
<vertex x="2.6875" y="1.15" curve="133.798882"/>
<vertex x="-2.6875" y="1.15"/>
</polygon>
<polygon width="0.1" layer="31">
<vertex x="-3.45" y="1.15"/>
<vertex x="-3.45" y="3.45"/>
<vertex x="3.45" y="3.45"/>
<vertex x="3.45" y="1.15"/>
<vertex x="2.6875" y="1.15" curve="133.798882"/>
<vertex x="-2.6875" y="1.15"/>
</polygon>
<smd name="1" x="0" y="3.225" dx="0.5" dy="0.5" layer="1" stop="no" cream="no"/>
<polygon width="0.2" layer="1">
<vertex x="3.45" y="-1.15"/>
<vertex x="3.45" y="-3.45"/>
<vertex x="-3.45" y="-3.45"/>
<vertex x="-3.45" y="-1.15"/>
<vertex x="-2.6875" y="-1.15" curve="133.798882"/>
<vertex x="2.6875" y="-1.15"/>
</polygon>
<polygon width="0.3" layer="29">
<vertex x="3.45" y="-1.15"/>
<vertex x="3.45" y="-3.45"/>
<vertex x="-3.45" y="-3.45"/>
<vertex x="-3.45" y="-1.15"/>
<vertex x="-2.6875" y="-1.15" curve="133.798882"/>
<vertex x="2.6875" y="-1.15"/>
</polygon>
<polygon width="0.1" layer="31">
<vertex x="3.45" y="-1.15"/>
<vertex x="3.45" y="-3.45"/>
<vertex x="-3.45" y="-3.45"/>
<vertex x="-3.45" y="-1.15"/>
<vertex x="-2.6875" y="-1.15" curve="133.798882"/>
<vertex x="2.6875" y="-1.15"/>
</polygon>
<smd name="2" x="0" y="-3.225" dx="0.5" dy="0.5" layer="1" rot="R180" stop="no" cream="no"/>
<text x="-3.65" y="3.825" size="1.27" layer="25">&gt;NAME</text>
<text x="-3.65" y="-5.1375" size="1.27" layer="27">&gt;VALUE</text>
<wire x1="-3.55" y1="-3.55" x2="-3.55" y2="2.4539875" width="0.2032" layer="51"/>
<wire x1="-3.55" y1="2.4539875" x2="-2.4539875" y2="3.55" width="0.2032" layer="51"/>
<wire x1="-2.4539875" y1="3.55" x2="3.55" y2="3.55" width="0.2032" layer="51"/>
<wire x1="3.55" y1="3.55" x2="3.55" y2="-2.4539875" width="0.2032" layer="51"/>
<wire x1="2.4539875" y1="-3.55" x2="-3.55" y2="-3.55" width="0.2032" layer="51"/>
<wire x1="3.55" y1="-2.4539875" x2="2.4539875" y2="-3.55" width="0.2032" layer="51"/>
</package>
<package name="MSS7341">
<description>&lt;b&gt;Package MSS7341&lt;/b&gt; 6.6 × 6.6 mm x 4.1 mm high, shielded inductors&lt;p&gt;
Source: http://www.farnell.com/datasheets/1681958.pdf</description>
<polygon width="0.2" layer="1">
<vertex x="-3.45" y="1.15"/>
<vertex x="-3.45" y="3.45"/>
<vertex x="3.45" y="3.45"/>
<vertex x="3.45" y="1.15"/>
<vertex x="2.6875" y="1.15" curve="133.798882"/>
<vertex x="-2.6875" y="1.15"/>
</polygon>
<polygon width="0.3" layer="29">
<vertex x="-3.45" y="1.15"/>
<vertex x="-3.45" y="3.45"/>
<vertex x="3.45" y="3.45"/>
<vertex x="3.45" y="1.15"/>
<vertex x="2.6875" y="1.15" curve="133.798882"/>
<vertex x="-2.6875" y="1.15"/>
</polygon>
<polygon width="0.1" layer="31">
<vertex x="-3.45" y="1.15"/>
<vertex x="-3.45" y="3.45"/>
<vertex x="3.45" y="3.45"/>
<vertex x="3.45" y="1.15"/>
<vertex x="2.6875" y="1.15" curve="133.798882"/>
<vertex x="-2.6875" y="1.15"/>
</polygon>
<smd name="1" x="0" y="3.225" dx="0.5" dy="0.5" layer="1" stop="no" cream="no"/>
<polygon width="0.2" layer="1">
<vertex x="3.45" y="-1.15"/>
<vertex x="3.45" y="-3.45"/>
<vertex x="-3.45" y="-3.45"/>
<vertex x="-3.45" y="-1.15"/>
<vertex x="-2.6875" y="-1.15" curve="133.798882"/>
<vertex x="2.6875" y="-1.15"/>
</polygon>
<polygon width="0.3" layer="29">
<vertex x="3.45" y="-1.15"/>
<vertex x="3.45" y="-3.45"/>
<vertex x="-3.45" y="-3.45"/>
<vertex x="-3.45" y="-1.15"/>
<vertex x="-2.6875" y="-1.15" curve="133.798882"/>
<vertex x="2.6875" y="-1.15"/>
</polygon>
<polygon width="0.1" layer="31">
<vertex x="3.45" y="-1.15"/>
<vertex x="3.45" y="-3.45"/>
<vertex x="-3.45" y="-3.45"/>
<vertex x="-3.45" y="-1.15"/>
<vertex x="-2.6875" y="-1.15" curve="133.798882"/>
<vertex x="2.6875" y="-1.15"/>
</polygon>
<smd name="2" x="0" y="-3.225" dx="0.5" dy="0.5" layer="1" rot="R180" stop="no" cream="no"/>
<text x="-3.65" y="3.825" size="1.27" layer="25">&gt;NAME</text>
<text x="-3.65" y="-5.1375" size="1.27" layer="27">&gt;VALUE</text>
<wire x1="-3.55" y1="-3.55" x2="-3.55" y2="2.4539875" width="0.2032" layer="51"/>
<wire x1="-3.55" y1="2.4539875" x2="-2.4539875" y2="3.55" width="0.2032" layer="51"/>
<wire x1="-2.4539875" y1="3.55" x2="3.55" y2="3.55" width="0.2032" layer="51"/>
<wire x1="3.55" y1="3.55" x2="3.55" y2="-2.4539875" width="0.2032" layer="51"/>
<wire x1="2.4539875" y1="-3.55" x2="-3.55" y2="-3.55" width="0.2032" layer="51"/>
<wire x1="3.55" y1="-2.4539875" x2="2.4539875" y2="-3.55" width="0.2032" layer="51"/>
</package>
<package name="EEE-FK1H101P__100UF_ECAP">
<description>&lt;b&gt;CAPACITOR&lt;/b&gt;</description>
<wire x1="-4.318" y1="4.318" x2="4.318" y2="4.318" width="0.0508" layer="39"/>
<wire x1="4.318" y1="-4.318" x2="-4.318" y2="-4.318" width="0.0508" layer="39"/>
<wire x1="-4.318" y1="-4.318" x2="-4.318" y2="4.318" width="0.0508" layer="39"/>
<wire x1="4.318" y1="4.318" x2="4.318" y2="-4.318" width="0.0508" layer="39"/>
<smd name="P" x="0" y="-4.0894" dx="2.54" dy="5.08" layer="1"/>
<smd name="N" x="0" y="4.0894" dx="2.54" dy="5.08" layer="1"/>
<text x="-6.096" y="-3.6068" size="1.27" layer="25" rot="R90">&gt;NAME</text>
<text x="-4.5466" y="-3.6068" size="1.27" layer="27" rot="R90">&gt;VALUE</text>
<rectangle x1="-1.397" y1="-0.889" x2="1.397" y2="0.889" layer="35"/>
<wire x1="4.1402" y1="4.1402" x2="4.1402" y2="-4.1402" width="0.127" layer="21"/>
<wire x1="-4.1402" y1="-4.1402" x2="-4.1402" y2="4.1402" width="0.127" layer="21"/>
<text x="-1.9558" y="-4.3434" size="1.27" layer="21" ratio="6" rot="R180">+</text>
<text x="2.0574" y="-4.318" size="1.27" layer="21" ratio="6" rot="R270">+</text>
<rectangle x1="1.651" y1="-3.81" x2="3.81" y2="3.81" layer="35"/>
<rectangle x1="-3.81" y1="-3.81" x2="-1.651" y2="3.81" layer="35"/>
<wire x1="-4.1402" y1="4.1402" x2="-1.9304" y2="4.1402" width="0.127" layer="21"/>
<wire x1="1.9304" y1="4.1402" x2="4.1402" y2="4.1402" width="0.127" layer="21"/>
<wire x1="1.9304" y1="-4.1402" x2="4.1402" y2="-4.1402" width="0.127" layer="21"/>
<wire x1="-4.1402" y1="-4.1402" x2="-1.9304" y2="-4.1402" width="0.127" layer="21"/>
</package>
</packages>
<symbols>
<symbol name="C-US">
<wire x1="-2.54" y1="0" x2="2.54" y2="0" width="0.254" layer="94"/>
<wire x1="0" y1="-1.016" x2="0" y2="-2.54" width="0.1524" layer="94"/>
<wire x1="0" y1="-1" x2="2.4892" y2="-1.8542" width="0.254" layer="94" curve="-37.878202"/>
<wire x1="-2.4668" y1="-1.8504" x2="0" y2="-1.0161" width="0.254" layer="94" curve="-37.373024"/>
<text x="1.016" y="0.635" size="1.778" layer="95">&gt;NAME</text>
<text x="1.016" y="-4.191" size="1.778" layer="96">&gt;VALUE</text>
<pin name="1" x="0" y="2.54" visible="off" length="short" direction="pas" swaplevel="1" rot="R270"/>
<pin name="2" x="0" y="-5.08" visible="off" length="short" direction="pas" swaplevel="1" rot="R90"/>
</symbol>
<symbol name="L-US">
<wire x1="0" y1="5.08" x2="1.27" y2="3.81" width="0.254" layer="94" curve="-90"/>
<wire x1="0" y1="2.54" x2="1.27" y2="3.81" width="0.254" layer="94" curve="90"/>
<wire x1="0" y1="2.54" x2="1.27" y2="1.27" width="0.254" layer="94" curve="-90"/>
<wire x1="0" y1="0" x2="1.27" y2="1.27" width="0.254" layer="94" curve="90"/>
<wire x1="0" y1="0" x2="1.27" y2="-1.27" width="0.254" layer="94" curve="-90"/>
<wire x1="0" y1="-2.54" x2="1.27" y2="-1.27" width="0.254" layer="94" curve="90"/>
<wire x1="0" y1="-2.54" x2="1.27" y2="-3.81" width="0.254" layer="94" curve="-90"/>
<wire x1="0" y1="-5.08" x2="1.27" y2="-3.81" width="0.254" layer="94" curve="90"/>
<text x="-1.27" y="-5.08" size="1.778" layer="95" rot="R90">&gt;NAME</text>
<text x="3.81" y="-5.08" size="1.778" layer="96" rot="R90">&gt;VALUE</text>
<pin name="2" x="0" y="-7.62" visible="off" length="short" direction="pas" swaplevel="1" rot="R90"/>
<pin name="1" x="0" y="7.62" visible="off" length="short" direction="pas" swaplevel="1" rot="R270"/>
</symbol>
<symbol name="THERMISTOR">
<wire x1="-2.54" y1="0" x2="-2.159" y2="1.016" width="0.2032" layer="94"/>
<wire x1="-2.159" y1="1.016" x2="-1.524" y2="-1.016" width="0.2032" layer="94"/>
<wire x1="-1.524" y1="-1.016" x2="-0.889" y2="1.016" width="0.2032" layer="94"/>
<wire x1="-0.889" y1="1.016" x2="-0.254" y2="-1.016" width="0.2032" layer="94"/>
<wire x1="-0.254" y1="-1.016" x2="0.381" y2="1.016" width="0.2032" layer="94"/>
<wire x1="0.381" y1="1.016" x2="1.016" y2="-1.016" width="0.2032" layer="94"/>
<wire x1="1.016" y1="-1.016" x2="1.651" y2="1.016" width="0.2032" layer="94"/>
<wire x1="1.651" y1="1.016" x2="2.286" y2="-1.016" width="0.2032" layer="94"/>
<wire x1="2.286" y1="-1.016" x2="2.54" y2="0" width="0.2032" layer="94"/>
<text x="-3.81" y="1.4986" size="1.778" layer="95">&gt;NAME</text>
<text x="-3.81" y="-3.302" size="1.778" layer="96">&gt;VALUE</text>
<pin name="2" x="5.08" y="0" visible="off" length="short" direction="pas" swaplevel="1" rot="R180"/>
<pin name="1" x="-5.08" y="0" visible="off" length="short" direction="pas" swaplevel="1"/>
<wire x1="-6.8" y1="-3.6" x2="-5" y2="-3.6" width="0.254" layer="94"/>
<wire x1="-5" y1="-3.6" x2="3.2" y2="2.1" width="0.254" layer="94"/>
</symbol>
<symbol name="R-US_CURRENT_SENSE">
<wire x1="-2.54" y1="0" x2="-2.159" y2="1.016" width="0.2032" layer="94"/>
<wire x1="-2.159" y1="1.016" x2="-1.524" y2="-1.016" width="0.2032" layer="94"/>
<wire x1="-1.524" y1="-1.016" x2="-0.889" y2="1.016" width="0.2032" layer="94"/>
<wire x1="-0.889" y1="1.016" x2="-0.254" y2="-1.016" width="0.2032" layer="94"/>
<wire x1="-0.254" y1="-1.016" x2="0.381" y2="1.016" width="0.2032" layer="94"/>
<wire x1="0.381" y1="1.016" x2="1.016" y2="-1.016" width="0.2032" layer="94"/>
<wire x1="1.016" y1="-1.016" x2="1.651" y2="1.016" width="0.2032" layer="94"/>
<wire x1="1.651" y1="1.016" x2="2.286" y2="-1.016" width="0.2032" layer="94"/>
<wire x1="2.286" y1="-1.016" x2="2.54" y2="0" width="0.2032" layer="94"/>
<text x="-3.81" y="1.4986" size="1.778" layer="95">&gt;NAME</text>
<text x="-3.81" y="-3.302" size="1.778" layer="96">&gt;VALUE</text>
<pin name="2" x="5.08" y="0" visible="off" length="short" direction="pas" swaplevel="1" rot="R180"/>
<pin name="1" x="-5.08" y="0" visible="off" length="short" direction="pas" swaplevel="1"/>
<text x="0" y="5.08" size="1.27" layer="94" ratio="6">CS</text>
</symbol>
<symbol name="R-US">
<wire x1="-2.54" y1="0" x2="-2.159" y2="1.016" width="0.2032" layer="94"/>
<wire x1="-2.159" y1="1.016" x2="-1.524" y2="-1.016" width="0.2032" layer="94"/>
<wire x1="-1.524" y1="-1.016" x2="-0.889" y2="1.016" width="0.2032" layer="94"/>
<wire x1="-0.889" y1="1.016" x2="-0.254" y2="-1.016" width="0.2032" layer="94"/>
<wire x1="-0.254" y1="-1.016" x2="0.381" y2="1.016" width="0.2032" layer="94"/>
<wire x1="0.381" y1="1.016" x2="1.016" y2="-1.016" width="0.2032" layer="94"/>
<wire x1="1.016" y1="-1.016" x2="1.651" y2="1.016" width="0.2032" layer="94"/>
<wire x1="1.651" y1="1.016" x2="2.286" y2="-1.016" width="0.2032" layer="94"/>
<wire x1="2.286" y1="-1.016" x2="2.54" y2="0" width="0.2032" layer="94"/>
<text x="-3.81" y="1.4986" size="1.778" layer="95">&gt;NAME</text>
<text x="-3.81" y="-3.302" size="1.778" layer="96">&gt;VALUE</text>
<pin name="2" x="5.08" y="0" visible="off" length="short" direction="pas" swaplevel="1" rot="R180"/>
<pin name="1" x="-5.08" y="0" visible="off" length="short" direction="pas" swaplevel="1"/>
</symbol>
<symbol name="CPOL-US">
<wire x1="-2.54" y1="0" x2="2.54" y2="0" width="0.254" layer="94"/>
<wire x1="0" y1="-1.016" x2="0" y2="-2.54" width="0.1524" layer="94"/>
<wire x1="0" y1="-1" x2="2.4892" y2="-1.8542" width="0.254" layer="94" curve="-37.878202"/>
<wire x1="-2.4669" y1="-1.8504" x2="0" y2="-1.0161" width="0.254" layer="94" curve="-37.376341"/>
<text x="1.016" y="0.635" size="1.778" layer="95">&gt;NAME</text>
<text x="1.016" y="-4.191" size="1.778" layer="96">&gt;VALUE</text>
<rectangle x1="-2.253" y1="0.668" x2="-1.364" y2="0.795" layer="94"/>
<rectangle x1="-1.872" y1="0.287" x2="-1.745" y2="1.176" layer="94"/>
<pin name="+" x="0" y="2.54" visible="off" length="short" direction="pas" swaplevel="1" rot="R270"/>
<pin name="-" x="0" y="-5.08" visible="off" length="short" direction="pas" swaplevel="1" rot="R90"/>
</symbol>
</symbols>
<devicesets>
<deviceset name="CL31A226KPHNNNE__22UF">
<gates>
<gate name="G$1" symbol="C-US" x="0" y="0"/>
</gates>
<devices>
<device name="" package="C1206">
<connects>
<connect gate="G$1" pin="1" pad="1"/>
<connect gate="G$1" pin="2" pad="2"/>
</connects>
<technologies>
<technology name=""/>
</technologies>
</device>
</devices>
</deviceset>
<deviceset name="CL21B106KQQNNNE__10UF">
<gates>
<gate name="A" symbol="C-US" x="0" y="0"/>
</gates>
<devices>
<device name="" package="C0805">
<connects>
<connect gate="A" pin="1" pad="1"/>
<connect gate="A" pin="2" pad="2"/>
</connects>
<technologies>
<technology name=""/>
</technologies>
</device>
</devices>
</deviceset>
<deviceset name="MGV06051R0M-10__1P0UH">
<gates>
<gate name="G$1" symbol="L-US" x="0" y="0"/>
</gates>
<devices>
<device name="" package="MGV06051R0M-10__1UH">
<connects>
<connect gate="G$1" pin="1" pad="1"/>
<connect gate="G$1" pin="2" pad="2"/>
</connects>
<technologies>
<technology name=""/>
</technologies>
</device>
</devices>
</deviceset>
<deviceset name="SRP7030-2R2M__2P2UH">
<gates>
<gate name="A" symbol="L-US" x="0" y="0"/>
</gates>
<devices>
<device name="" package="SRP7030-2R2M__2P2UH">
<connects>
<connect gate="A" pin="1" pad="1"/>
<connect gate="A" pin="2" pad="2"/>
</connects>
<technologies>
<technology name=""/>
</technologies>
</device>
</devices>
</deviceset>
<deviceset name="GRM31CR60J476ME19L__47UF">
<gates>
<gate name="A" symbol="C-US" x="0" y="0"/>
</gates>
<devices>
<device name="" package="C1206">
<connects>
<connect gate="A" pin="1" pad="1"/>
<connect gate="A" pin="2" pad="2"/>
</connects>
<technologies>
<technology name=""/>
</technologies>
</device>
</devices>
</deviceset>
<deviceset name="GRM31CR61E226KE15L__22UF">
<gates>
<gate name="A" symbol="C-US" x="0" y="0"/>
</gates>
<devices>
<device name="" package="C1206">
<connects>
<connect gate="A" pin="1" pad="1"/>
<connect gate="A" pin="2" pad="2"/>
</connects>
<technologies>
<technology name=""/>
</technologies>
</device>
</devices>
</deviceset>
<deviceset name="GRM21BR61E106KA73L__10UF">
<gates>
<gate name="G$1" symbol="C-US" x="0" y="0"/>
</gates>
<devices>
<device name="" package="C0805">
<connects>
<connect gate="G$1" pin="1" pad="1"/>
<connect gate="G$1" pin="2" pad="2"/>
</connects>
<technologies>
<technology name=""/>
</technologies>
</device>
</devices>
</deviceset>
<deviceset name="175-103LAE-301__NTC_THERMISTOR">
<gates>
<gate name="A" symbol="THERMISTOR" x="0" y="0"/>
</gates>
<devices>
<device name="" package="R1206">
<connects>
<connect gate="A" pin="1" pad="1"/>
<connect gate="A" pin="2" pad="2"/>
</connects>
<technologies>
<technology name=""/>
</technologies>
</device>
</devices>
</deviceset>
<deviceset name="CRF2512-FX-R010ELF__10MOHM_CS">
<gates>
<gate name="G$1" symbol="R-US_CURRENT_SENSE" x="0" y="0"/>
</gates>
<devices>
<device name="" package="R2512">
<connects>
<connect gate="G$1" pin="1" pad="1"/>
<connect gate="G$1" pin="2" pad="2"/>
</connects>
<technologies>
<technology name=""/>
</technologies>
</device>
</devices>
</deviceset>
<deviceset name="WSL2010R0100FEA__10MOHM_CS">
<gates>
<gate name="G$1" symbol="R-US_CURRENT_SENSE" x="0" y="0"/>
</gates>
<devices>
<device name="" package="R2010">
<connects>
<connect gate="G$1" pin="1" pad="1"/>
<connect gate="G$1" pin="2" pad="2"/>
</connects>
<technologies>
<technology name=""/>
</technologies>
</device>
</devices>
</deviceset>
<deviceset name="74479887310A__10UH">
<gates>
<gate name="G$1" symbol="L-US" x="0" y="0"/>
</gates>
<devices>
<device name="" package="L1008">
<connects>
<connect gate="G$1" pin="1" pad="1"/>
<connect gate="G$1" pin="2" pad="2"/>
</connects>
<technologies>
<technology name=""/>
</technologies>
</device>
</devices>
</deviceset>
<deviceset name="744031220__22UH">
<gates>
<gate name="G$1" symbol="L-US" x="0" y="0"/>
</gates>
<devices>
<device name="" package="744031220__22UH">
<connects>
<connect gate="G$1" pin="1" pad="1"/>
<connect gate="G$1" pin="2" pad="2"/>
</connects>
<technologies>
<technology name=""/>
</technologies>
</device>
</devices>
</deviceset>
<deviceset name="MSS1278T-223__22UH">
<gates>
<gate name="G$1" symbol="L-US" x="0" y="0"/>
</gates>
<devices>
<device name="" package="MSS1278T-223__22UH">
<connects>
<connect gate="G$1" pin="1" pad="1"/>
<connect gate="G$1" pin="2" pad="2"/>
</connects>
<technologies>
<technology name=""/>
</technologies>
</device>
</devices>
</deviceset>
<deviceset name="MSS1278T-103__10UH">
<gates>
<gate name="G$1" symbol="L-US" x="0" y="0"/>
</gates>
<devices>
<device name="" package="MSS1278T-103__10UH">
<connects>
<connect gate="G$1" pin="1" pad="1"/>
<connect gate="G$1" pin="2" pad="2"/>
</connects>
<technologies>
<technology name=""/>
</technologies>
</device>
</devices>
</deviceset>
<deviceset name="ESR10EZPF10R0__10OHM">
<description>10 Ohms, 0805 package, 1/4 W, Tol. 1%, 100ppm/C</description>
<gates>
<gate name="G$1" symbol="R-US" x="0" y="0"/>
</gates>
<devices>
<device name="" package="R0805">
<connects>
<connect gate="G$1" pin="1" pad="1"/>
<connect gate="G$1" pin="2" pad="2"/>
</connects>
<technologies>
<technology name=""/>
</technologies>
</device>
</devices>
</deviceset>
<deviceset name="ESR03EZPF10R0__10OHM">
<description>10 Ohms, 0603 package, 1/4 W, Tol. 1%, 100ppm/C</description>
<gates>
<gate name="G$1" symbol="R-US" x="0" y="0"/>
</gates>
<devices>
<device name="" package="R0603">
<connects>
<connect gate="G$1" pin="1" pad="1"/>
<connect gate="G$1" pin="2" pad="2"/>
</connects>
<technologies>
<technology name=""/>
</technologies>
</device>
</devices>
</deviceset>
<deviceset name="VLS6045EX-6R8M__6P8UH">
<gates>
<gate name="G$1" symbol="L-US" x="0" y="0"/>
</gates>
<devices>
<device name="" package="VLS6045EX-6R8M__6P8UH">
<connects>
<connect gate="G$1" pin="1" pad="1"/>
<connect gate="G$1" pin="2" pad="2"/>
</connects>
<technologies>
<technology name=""/>
</technologies>
</device>
</devices>
</deviceset>
<deviceset name="EEE-1HA220WP__22UF_ECAP">
<gates>
<gate name="A" symbol="CPOL-US" x="0" y="0"/>
</gates>
<devices>
<device name="" package="EEE-1HA220WP__22UF_ECAP">
<connects>
<connect gate="A" pin="+" pad="P"/>
<connect gate="A" pin="-" pad="N"/>
</connects>
<technologies>
<technology name=""/>
</technologies>
</device>
</devices>
</deviceset>
<deviceset name="EEE-1HA100SP__10UF_ECAP">
<gates>
<gate name="A" symbol="CPOL-US" x="0" y="0"/>
</gates>
<devices>
<device name="" package="EEE-1HA220WP__22UF_ECAP">
<connects>
<connect gate="A" pin="+" pad="P"/>
<connect gate="A" pin="-" pad="N"/>
</connects>
<technologies>
<technology name=""/>
</technologies>
</device>
</devices>
</deviceset>
<deviceset name="EEE-FK1H101P__100UF_ECAP">
<gates>
<gate name="A" symbol="CPOL-US" x="0" y="0"/>
</gates>
<devices>
<device name="" package="EEE-FK1H101P__100UF_ECAP">
<connects>
<connect gate="A" pin="+" pad="P"/>
<connect gate="A" pin="-" pad="N"/>
</connects>
<technologies>
<technology name=""/>
</technologies>
</device>
</devices>
</deviceset>
</devicesets>
</library>
</drawing>
</eagle>
